<?xml version="1.0" encoding="utf-8"?>
<!-- Generator: Adobe Illustrator 15.1.0, SVG Export Plug-In . SVG Version: 6.00 Build 0)  -->
<!DOCTYPE svg PUBLIC "-//W3C//DTD SVG 1.1//EN" "http://www.w3.org/Graphics/SVG/1.1/DTD/svg11.dtd">
<svg version="1.1" id="Layer_1" xmlns="http://www.w3.org/2000/svg" xmlns:xlink="http://www.w3.org/1999/xlink" x="0px" y="0px"
	 width="528.723px" height="80.112px" viewBox="0 0 528.723 80.112" enable-background="new 0 0 528.723 80.112"
	 xml:space="preserve">
<g>
	<defs>
		<rect id="SVGID_1_" width="528.723" height="80.112"/>
	</defs>
	<clipPath id="SVGID_2_">
		<use xlink:href="#SVGID_1_"  overflow="visible"/>
	</clipPath>
	<path clip-path="url(#SVGID_2_)" fill="#FFFFFF" d="M208.172,71.884c0-4.33-3.52-7.796-7.787-7.796
		c-4.267,0-7.787,3.465-7.787,7.796c0,4.329,3.52,7.902,7.787,7.902C204.652,79.787,208.172,76.213,208.172,71.884"/>
	<path clip-path="url(#SVGID_2_)" fill="#FFFFFF" d="M220.434,17.051v7.524h-2.507c-2.027,0-2.827,0.108-3.787,0.649
		c-1.227,0.704-1.92,1.949-1.92,3.573s0.693,2.869,1.92,3.573c0.96,0.541,1.76,0.65,3.787,0.65h2.507v39.352
		c0,2.652,0.16,3.627,0.8,4.926c0.747,1.463,2.294,2.599,4.64,2.599c2.347,0,3.894-1.137,4.64-2.599c0.64-1.299,0.8-2.272,0.8-4.926
		V33.019h5.921c2.027,0,2.827-0.108,3.787-0.65c1.227-0.704,1.92-1.949,1.92-3.573s-0.693-2.869-1.92-3.573
		c-0.96-0.541-1.76-0.649-3.787-0.649h-5.921v-7.037c0-3.789,1.493-6.225,5.494-6.333c1.76-0.054,2.987-0.216,3.947-0.758
		c1.28-0.704,2.187-2.057,2.187-3.897s-0.907-3.14-2.187-3.843c-0.96-0.541-2.4-0.866-4.587-0.866h-1.067
		C224.915,1.84,220.434,8.986,220.434,17.051"/>
	<path clip-path="url(#SVGID_2_)" fill="#FFFFFF" d="M261.821,72.371V31.666c0-2.652-0.16-3.627-0.8-4.926
		c-0.747-1.462-2.293-2.598-4.64-2.598c-2.347,0-3.894,1.137-4.64,2.598c-0.64,1.299-0.8,2.273-0.8,4.926v40.705
		c0,2.652,0.16,3.627,0.8,4.926c0.747,1.463,2.293,2.599,4.64,2.599c2.347,0,3.894-1.137,4.64-2.599
		C261.661,75.998,261.821,75.023,261.821,72.371 M249.82,6.658c0,3.681,2.934,6.658,6.561,6.658s6.561-2.977,6.561-6.658
		c0-3.681-2.935-6.658-6.562-6.658S249.82,2.977,249.82,6.658"/>
	<path clip-path="url(#SVGID_2_)" fill="#FFFFFF" d="M285.017,46.01c0-8.444,5.121-12.125,11.201-12.125
		c6.081,0,10.881,3.572,10.881,12.125v26.36c0,2.652,0.16,3.627,0.801,4.926c0.747,1.463,2.294,2.599,4.64,2.599
		c2.347,0,3.894-1.137,4.641-2.599c0.641-1.299,0.801-2.272,0.801-4.926V44.386c0-6.171-1.28-11.367-5.441-15.481
		c-3.2-3.139-7.787-4.98-13.335-4.98c-5.387,0-10.508,2.003-14.241,6.008c-0.106-2.003-0.427-2.815-0.96-3.627
		c-1.013-1.462-2.667-2.165-4.427-2.165c-1.814,0-3.574,0.866-4.48,2.327c-0.747,1.245-0.96,2.219-0.96,5.251V72.37
		c0,2.652,0.16,3.627,0.8,4.926c0.747,1.463,2.295,2.599,4.641,2.599s3.894-1.138,4.641-2.599c0.641-1.299,0.8-2.272,0.8-4.926
		V46.01z"/>
	<path clip-path="url(#SVGID_2_)" fill="#FFFFFF" d="M326.293,63.332c0,4.655,1.547,8.877,4.32,11.746
		c3.254,3.41,7.787,4.98,14.561,4.98c6.614,0,10.241-1.462,14.508-5.685c0.107,2.328,0.587,3.194,1.228,3.951
		c0.853,0.92,2.187,1.57,3.947,1.57c2.079,0,3.84-1.028,4.64-2.544c0.693-1.245,0.8-2.273,0.8-4.98V42.816
		c0-12.45-7.627-18.891-22.135-18.891c-5.602,0-9.974,1.083-13.761,3.302c-2.773,1.624-5.067,3.843-5.067,6.333
		c0,1.462,0.373,2.382,1.28,3.41c0.8,0.974,2.026,1.462,3.146,1.462c1.014,0,2.561-0.379,3.947-1.462
		c3.146-2.436,6.027-3.681,10.348-3.681c7.947,0,11.309,3.519,11.309,10.718v3.41h-14.349
		C332.746,47.417,326.293,54.129,326.293,63.332 M336.907,63.168c0-5.088,3.254-7.902,9.653-7.902h12.802v4.33
		c0,4.06-0.693,6.55-2.4,8.174c-2.774,2.706-5.974,3.139-9.868,3.139C340.214,70.91,336.907,68.149,336.907,63.168"/>
	<path clip-path="url(#SVGID_2_)" fill="#FFFFFF" d="M393.341,46.01c0-8.444,5.121-12.125,11.201-12.125s10.881,3.572,10.881,12.125
		v26.36c0,2.652,0.16,3.627,0.8,4.926c0.747,1.463,2.294,2.599,4.641,2.599s3.894-1.137,4.64-2.599c0.64-1.299,0.8-2.272,0.8-4.926
		V44.386c0-6.171-1.279-11.367-5.439-15.481c-3.2-3.139-7.787-4.98-13.335-4.98c-5.388,0-10.509,2.003-14.241,6.008
		c-0.107-2.003-0.427-2.815-0.96-3.627c-1.013-1.462-2.667-2.165-4.427-2.165c-1.813,0-3.574,0.866-4.48,2.327
		c-0.747,1.245-0.96,2.219-0.96,5.251V72.37c0,2.652,0.16,3.627,0.8,4.926c0.747,1.463,2.294,2.599,4.641,2.599
		s3.894-1.138,4.64-2.599c0.64-1.299,0.8-2.272,0.8-4.926L393.341,46.01L393.341,46.01z"/>
	<path clip-path="url(#SVGID_2_)" fill="#FFFFFF" d="M435.864,52.019c0,20.568,11.733,28.093,24.002,28.093
		c4.96,0,8.427-1.245,11.841-3.464c2.72-1.786,5.28-3.843,5.28-6.604c0-1.406-0.587-2.598-1.547-3.627
		c-0.801-0.812-2.08-1.462-3.36-1.462c-1.44,0-2.507,0.649-4.32,2.111c-2.72,2.165-4.907,3.085-7.894,3.085
		c-4.268,0-7.521-1.57-9.868-4.763c-2.347-3.085-3.254-7.037-3.254-13.37c0-6.388,0.907-10.285,3.254-13.424s5.6-4.709,9.868-4.709
		c2.986,0,5.174,0.812,7.894,3.031c1.813,1.516,2.88,2.111,4.32,2.111c1.28,0,2.56-0.595,3.36-1.407
		c0.96-1.028,1.547-2.273,1.547-3.627c0-2.815-2.454-4.763-5.28-6.604c-3.627-2.382-6.987-3.464-11.841-3.464
		C447.599,23.925,435.864,31.449,435.864,52.019"/>
	<path clip-path="url(#SVGID_2_)" fill="#FFFFFF" d="M482.898,52.019c0,20.894,10.881,28.093,24.376,28.093
		c5.813,0,10.721-1.245,14.135-3.518c2.667-1.732,5.439-4.114,5.439-6.658s-2.294-4.709-4.479-4.709
		c-1.387,0-2.773,0.649-4.427,2.003c-2.935,2.382-6.614,3.464-10.401,3.464c-9.014,0-13.868-6.117-13.868-15.481h28.749
		c1.6,0,3.414,0,4.8-1.406c1.333-1.354,1.547-3.303,1.493-4.927c-0.32-14.506-8.747-24.954-22.882-24.954
		C492.019,23.925,482.898,33.939,482.898,52.019 M517.995,47.526h-24.322c0.107-3.356,0.32-5.088,1.387-7.47
		c1.814-4.114,5.548-6.929,10.774-6.929c5.12,0,8.854,2.815,10.668,6.929C517.568,42.438,517.782,44.169,517.995,47.526"/>
	<path clip-path="url(#SVGID_2_)" fill="#FFFFFF" d="M26.029,69.719c-6.561,0-11.041-1.354-16.161-4.927
		c-2.08-1.461-3.414-1.948-4.907-1.948c-1.227,0-2.4,0.433-3.36,1.406C0.587,65.28,0,66.795,0,68.095
		c0,2.814,1.44,4.438,5.387,6.819c5.601,3.41,11.308,5.197,20.429,5.197c16.001,0,27.309-8.444,27.309-22.626
		c0-6.712-2.133-12.017-6.187-15.806c-3.307-3.031-7.147-4.655-14.081-5.738l-9.067-1.407c-4.16-0.649-6.401-1.732-8.321-3.464
		c-2.027-1.732-2.774-4.33-2.774-7.145c0-7.037,4.801-11.963,13.761-11.963c5.334,0,8.908,0.974,13.441,3.789
		c1.547,0.974,3.414,1.678,4.64,1.678c1.547,0,2.667-0.65,3.52-1.678c0.907-1.083,1.333-2.328,1.333-3.573
		c0-2.49-1.973-4.493-4.64-5.9c-6.294-3.356-10.668-4.547-17.868-4.547c-15.788,0-25.389,9.094-25.389,22.518
		c0,6.279,1.813,11.259,5.601,14.777c3.574,3.356,8.214,5.305,14.348,6.225l9.014,1.3c3.787,0.541,6.347,1.516,8.267,3.247
		c2.134,1.841,2.987,4.548,2.987,8.012C41.71,65.388,36.057,69.719,26.029,69.719"/>
	<path clip-path="url(#SVGID_2_)" fill="#FFFFFF" d="M62.663,4.06C61.01,5.738,61.01,7.795,61.01,9.527v62.79
		c0,1.731,0,3.789,1.653,5.467c1.654,1.678,3.68,1.678,5.387,1.678h19.682c9.548,0,16.481-3.085,21.549-9.688
		c5.334-6.929,5.707-15.156,5.707-28.852c0-13.694-0.267-21.813-5.601-28.743c-5.12-6.55-12.108-9.797-21.655-9.797H68.051
		C66.344,2.382,64.317,2.382,62.663,4.06 M72.531,12.774h13.868c5.494,0,9.868,1.516,13.068,5.251c3.787,4.33,4,11.476,4,22.896
		c0,11.422-0.213,18.566-4,22.897c-3.2,3.735-7.574,5.251-13.068,5.251H72.531V12.774z"/>
	<path clip-path="url(#SVGID_2_)" fill="#FFFFFF" d="M136.209,71.938v-14.94l12.961-15.806l18.988,33.938
		c1.493,2.707,2.827,4.764,5.707,4.764c1.013,0,2.133-0.216,3.094-0.813c1.973-1.19,2.88-2.923,2.827-4.816
		c-0.053-1.462-0.48-2.437-1.813-4.818l-20.802-37.079l16.161-19.811c1.867-2.273,2.56-3.41,2.56-5.034
		c0-1.57-0.747-3.085-2.08-4.222c-1.013-0.866-2.24-1.353-3.574-1.353c-2.134,0-3.414,1.245-5.28,3.518l-28.749,35.401V9.906
		c0-2.869-0.053-3.789-0.853-5.305c-0.854-1.57-2.614-2.652-4.907-2.652c-2.294,0-4.054,1.082-4.907,2.652
		c-0.8,1.516-0.853,2.436-0.853,5.305v62.032c0,2.869,0.053,3.789,0.853,5.305c0.853,1.57,2.614,2.652,4.907,2.652
		c2.294,0,4.054-1.083,4.907-2.652C136.156,75.727,136.209,74.807,136.209,71.938"/>
</g>
</svg>
